Wizualizacja
…
Reszta (epsilon)

data.100  %>% mutate(r=paliwo-prediction) 

## # A tibble: 28 x 10
##    `Sygnatura czasowa` Licznik Cena.tankowania Cena.jednostkowa Do.pena
##    <dttm>                <dbl>           <dbl>            <dbl> <chr>   
##  1 2015-06-17 11:31:10   55949            63.9             4.89 Tak     
##  2 2015-07-23 19:11:19   56609           220.              4.99 Tak     
##  3 2015-09-07 10:41:19   57262           226.              4.63 Tak     
##  4 2015-11-10 12:13:06   57908           220.              4.53 Tak     
##  5 2015-12-27 20:53:34   58454           180.              3.98 Tak     
##  6 2016-02-01 14:26:28   59090           193.              4.03 Tak     
##  7 2016-03-05 14:44:25   59766           162.              3.83 Tak     
##  8 2016-04-30 14:30:40   60107           125.              4.24 Tak     
##  9 2016-08-02 19:44:29   60882            70.2             4.48 Nie     
## 10 2016-08-16 16:40:57   61114           100.              4.34 Nie     
## # ... with 18 more rows, and 5 more variables: Data.tankowania <date>,
## #   paliwo <dbl>, licznik100 <dbl>, prediction <dbl>, r <dbl>
